Query ID,Attraction Probability
325,"[0.2504, 0.2306, 0.1127, 0.0919, 0.1350, 0.1347, 0.1502, 0.1104, 0.1206, 0.1076]"
3051,"[0.8533, 0.0090, 0.0041, 0.0017, 0.0033, 0.0009, 0.0055, 0.0014, 0.0068, 0.0083]"
1153,"[0.4453, 0.3309, 0.2888, 0.3171, 0.3034, 0.2057, 0.2829, 0.2891, 0.2894, 0.2680]"
3147,"[0.8610, 0.0289, 0.0413, 0.0119, 0.0220, 0.0042, 0.0067, 0.0169, 0.0114, 0.0232]"
10801,"[0.2177, 0.1010, 0.1238, 0.2624, 0.1355, 0.1780, 0.0890, 0.3677, 0.0879, 0.1242]"
15217,"[0.5700, 0.2511, 0.0985, 0.1027, 0.0343, 0.1397, 0.0389, 0.0144, 0.0732, 0.0167]"
11958,"[0.3660, 0.2164, 0.0819, 0.1624, 0.0662, 0.1516, 0.1094, 0.1119, 0.1164, 0.0231]"
2261,"[0.3764, 0.2143, 0.2210, 0.1496, 0.2405, 0.1272, 0.2062, 0.2789, 0.2277, 0.2933]"
11527,"[0.5184, 0.2102, 0.1988, 0.1590, 0.0574, 0.3332, 0.3689, 0.4793, 0.2208, 0.2219]"
23398,"[0.3324, 0.2612, 0.1749, 0.2013, 0.0815, 0.0891, 0.2113, 0.2295, 0.1448, 0.1664]"
3170,"[0.5444, 0.4465, 0.4050, 0.1640, 0.1419, 0.0982, 0.1401, 0.1168, 0.1785, 0.1165]"
12503955,"[0.1573, 0.5319, 0.4241, 0.2255, 0.2055, 0.1309, 0.2247, 0.1902, 0.1580, 0.1333]"
5771,"[0.5654, 0.3981, 0.4061, 0.3293, 0.1987, 0.3139, 0.2330, 0.2032, 0.1808, 0.1488]"
42696,"[0.0764, 0.1155, 0.0784, 0.1171, 0.0970, 0.0477, 0.0538, 0.1091, 0.0897, 0.0379]"
2241,"[0.5852, 0.2865, 0.2374, 0.2204, 0.1277, 0.1119, 0.1343, 0.1693, 0.1702, 0.1441]"
71781,"[0.3151, 0.3294, 0.2101, 0.1720, 0.1609, 0.1823, 0.1751, 0.1992, 0.1352, 0.1853]"
37343,"[0.7712, 0.0717, 0.0837, 0.1440, 0.0469, 0.0686, 0.0209, 0.0776, 0.0345, 0.0719]"
13108,"[0.8700, 0.1197, 0.0198, 0.0589, 0.0038, 0.0112, 0.0067, 0.0017, 0.0014, 0.0029]"
2219765,"[0.6380, 0.4393, 0.5542, 0.2846, 0.6804, 0.5444, 0.5085, 0.4242, 0.7151, 0.2799]"
7467,"[0.6106, 0.2561, 0.1770, 0.1220, 0.0967, 0.0812, 0.0313, 0.0472, 0.0443, 0.0295]"
23004,"[0.2686, 0.6440, 0.3904, 0.1968, 0.1281, 0.2580, 0.1175, 0.3976, 0.2791, 0.1624]"
401,"[0.1323, 0.0489, 0.0673, 0.0612, 0.0628, 0.0850, 0.1088, 0.0637, 0.1137, 0.1407]"
16463,"[0.0961, 0.0982, 0.1412, 0.1843, 0.1783, 0.0618, 0.0672, 0.1545, 0.2059, 0.1100]"
58755,"[0.4881, 0.3107, 0.0427, 0.0947, 0.0216, 0.0691, 0.0329, 0.0117, 0.0154, 0.0138]"
22500,"[0.4328, 0.2903, 0.4874, 0.4230, 0.3845, 0.6040, 0.4609, 0.5151, 0.4879, 0.5132]"
663171,"[0.7170, 0.3015, 0.5742, 0.6266, 0.4716, 0.7716, 0.7158, 0.5322, 0.5783, 0.7772]"
27067,"[0.6871, 0.0433, 0.0501, 0.0739, 0.0144, 0.0387, 0.0050, 0.0195, 0.0781, 0.0128]"
93361,"[0.1413, 0.1038, 0.2251, 0.0840, 0.1326, 0.1965, 0.1605, 0.0543, 0.2061, 0.1910]"
74772,"[0.8997, 0.0134, 0.0166, 0.0199, 0.0242, 0.0247, 0.0157, 0.0175, 0.0073, 0.0217]"
187546,"[0.3826, 0.3227, 0.4409, 0.2822, 0.2515, 0.2975, 0.2177, 0.2177, 0.2424, 0.1960]"
59560,"[0.2241, 0.0966, 0.0994, 0.0518, 0.0378, 0.0779, 0.1952, 0.0710, 0.1013, 0.0585]"
30175,"[0.2474, 0.5289, 0.2219, 0.0838, 0.1797, 0.1246, 0.0561, 0.1517, 0.0756, 0.0430]"
185982,"[0.4356, 0.4257, 0.1421, 0.0812, 0.1852, 0.1416, 0.1338, 0.0962, 0.1206, 0.1571]"
266608,"[0.4430, 0.2618, 0.3619, 0.1630, 0.3057, 0.1777, 0.2367, 0.1539, 0.1902, 0.2028]"
115544,"[0.3109, 0.2383, 0.2070, 0.2829, 0.2297, 0.1701, 0.3988, 0.2545, 0.3150, 0.1738]"
8350,"[0.8762, 0.0767, 0.0538, 0.0325, 0.1311, 0.0809, 0.0461, 0.0303, 0.1310, 0.0554]"
49111,"[0.4645, 0.2373, 0.1340, 0.2285, 0.2612, 0.1816, 0.1867, 0.1971, 0.1630, 0.1041]"
10434642,"[0.5323, 0.6114, 0.3330, 0.3197, 0.5903, 0.2706, 0.6152, 0.4791, 0.5454, 0.5312]"
218954,"[0.4696, 0.2872, 0.3282, 0.3253, 0.2544, 0.2768, 0.3809, 0.4587, 0.3694, 0.4815]"
213099,"[0.2035, 0.0805, 0.1041, 0.0529, 0.0234, 0.0636, 0.0867, 0.0477, 0.0199, 0.0303]"
128292,"[0.2151, 0.0656, 0.0961, 0.0949, 0.1159, 0.0319, 0.0670, 0.1092, 0.0341, 0.0999]"
268124,"[0.0397, 0.0220, 0.0218, 0.0153, 0.0140, 0.0033, 0.0118, 0.0095, 0.0208, 0.0096]"
90923,"[0.5161, 0.2155, 0.2776, 0.2104, 0.1342, 0.3131, 0.3328, 0.2973, 0.3115, 0.4901]"
77932,"[0.6009, 0.1181, 0.1755, 0.1204, 0.0981, 0.0478, 0.1136, 0.1224, 0.0452, 0.0313]"
19815,"[0.5253, 0.3113, 0.1573, 0.1949, 0.2201, 0.2154, 0.2434, 0.2339, 0.3304, 0.1234]"
373015,"[0.2932, 0.1850, 0.2431, 0.2372, 0.2887, 0.3118, 0.3041, 0.1221, 0.3465, 0.3388]"
145289,"[0.2198, 0.0615, 0.2743, 0.0817, 0.1629, 0.5574, 0.0537, 0.3239, 0.1242, 0.0258]"
6277,"[0.2837, 0.1397, 0.1509, 0.0798, 0.2096, 0.1977, 0.1088, 0.1600, 0.1217, 0.0322]"
39492,"[0.3786, 0.0788, 0.2544, 0.3004, 0.2347, 0.1875, 0.2456, 0.2697, 0.2184, 0.2142]"
62786,"[0.4556, 0.3799, 0.2223, 0.1861, 0.2912, 0.3294, 0.0880, 0.1887, 0.0910, 0.1229]"
87529,"[0.3428, 0.1190, 0.1725, 0.1184, 0.1527, 0.1390, 0.1068, 0.1186, 0.3020, 0.1222]"
116973,"[0.5841, 0.0576, 0.0341, 0.0185, 0.0100, 0.0136, 0.0071, 0.0136, 0.0140, 0.0118]"
46254,"[0.5621, 0.2800, 0.2976, 0.3203, 0.3401, 0.1732, 0.3067, 0.3283, 0.2295, 0.2828]"
500173,"[0.7919, 0.0916, 0.0369, 0.0793, 0.0179, 0.0736, 0.0374, 0.0692, 0.0979, 0.0375]"
47937,"[0.4963, 0.4906, 0.3333, 0.2971, 0.2386, 0.1777, 0.3102, 0.1755, 0.3787, 0.2748]"
214456,"[0.3654, 0.2349, 0.2647, 0.1833, 0.2213, 0.0520, 0.2088, 0.1762, 0.1252, 0.2487]"
90483,"[0.7458, 0.1814, 0.1637, 0.1229, 0.1321, 0.1242, 0.1559, 0.1284, 0.1502, 0.1177]"
42764,"[0.4943, 0.2582, 0.0821, 0.0570, 0.0380, 0.1129, 0.0988, 0.0437, 0.1726, 0.0724]"
89951,"[0.3703, 0.2612, 0.3403, 0.2649, 0.3469, 0.2489, 0.1292, 0.1859, 0.2799, 0.3356]"
31473,"[0.6447, 0.1011, 0.1376, 0.0798, 0.1105, 0.1710, 0.0676, 0.1261, 0.0663, 0.0793]"
4220,"[0.7173, 0.3645, 0.0510, 0.0566, 0.0195, 0.0087, 0.1445, 0.0171, 0.0123, 0.0116]"
83327,"[0.4311, 0.3748, 0.3824, 0.3838, 0.5230, 0.2496, 0.2852, 0.3043, 0.3400, 0.1466]"
110694,"[0.7036, 0.1201, 0.0685, 0.0735, 0.0250, 0.0511, 0.0117, 0.0116, 0.0045, 0.0239]"
151685,"[0.3546, 0.3718, 0.2864, 0.3259, 0.2994, 0.2835, 0.2124, 0.2176, 0.2473, 0.1921]"
297115,"[0.1261, 0.2456, 0.1054, 0.3230, 0.0748, 0.1624, 0.1267, 0.0737, 0.0433, 0.1231]"
18393,"[0.3469, 0.2684, 0.4054, 0.2401, 0.0806, 0.1684, 0.1268, 0.0969, 0.1544, 0.1473]"
84994,"[0.5800, 0.1988, 0.2174, 0.1967, 0.1631, 0.1523, 0.3753, 0.1657, 0.2084, 0.2042]"
315105,"[0.1614, 0.1014, 0.0472, 0.3611, 0.2012, 0.1813, 0.1082, 0.0708, 0.0986, 0.1015]"
170055,"[0.4240, 0.1728, 0.2391, 0.2512, 0.1556, 0.2654, 0.0869, 0.1524, 0.2794, 0.2203]"
150571,"[0.5819, 0.3423, 0.1147, 0.0606, 0.0084, 0.0381, 0.0248, 0.0816, 0.0326, 0.0159]"
230327,"[0.9111, 0.0133, 0.0545, 0.0171, 0.0089, 0.0281, 0.0227, 0.0229, 0.0322, 0.0091]"
486195,"[0.6962, 0.2269, 0.1711, 0.1373, 0.1455, 0.1220, 0.1581, 0.1382, 0.1368, 0.1163]"
181809,"[0.4268, 0.2751, 0.1638, 0.1294, 0.1617, 0.0881, 0.0922, 0.0435, 0.0588, 0.2233]"
345123,"[0.0259, 0.0226, 0.0269, 0.0142, 0.2923, 0.0071, 0.0257, 0.0214, 0.0433, 0.0229]"
73569,"[0.3121, 0.0943, 0.0941, 0.0820, 0.0483, 0.0605, 0.0349, 0.0479, 0.0842, 0.0494]"
269906,"[0.4013, 0.0726, 0.2229, 0.1602, 0.2065, 0.1035, 0.0601, 0.0784, 0.0582, 0.0608]"
17112114,"[0.3225, 0.3139, 0.0433, 0.3065, 0.0961, 0.0590, 0.0223, 0.1213, 0.1073, 0.1882]"
180087,"[0.1367, 0.1709, 0.1216, 0.0553, 0.0892, 0.0128, 0.0840, 0.0248, 0.0299, 0.0474]"
2548,"[0.5900, 0.0915, 0.0884, 0.1194, 0.0696, 0.1833, 0.0689, 0.0933, 0.0480, 0.0768]"
235540,"[0.8324, 0.0926, 0.0895, 0.0223, 0.0149, 0.0586, 0.1103, 0.0437, 0.0644, 0.0441]"
310450,"[0.1535, 0.5220, 0.0363, 0.0938, 0.0296, 0.1518, 0.0397, 0.0421, 0.0174, 0.0323]"
62032,"[0.7889, 0.1868, 0.1118, 0.0732, 0.1719, 0.0516, 0.0998, 0.1135, 0.0849, 0.1117]"
5432,"[0.8492, 0.0198, 0.0378, 0.0051, 0.0087, 0.0031, 0.0071, 0.0123, 0.0226, 0.0100]"
132308,"[0.4201, 0.1397, 0.1214, 0.0211, 0.0438, 0.0329, 0.0516, 0.0412, 0.0757, 0.0507]"
773164,"[0.0540, 0.0022, 0.1052, 0.0255, 0.0144, 0.0049, 0.4146, 0.0325, 0.0074, 0.0077]"
12963,"[0.3612, 0.2944, 0.2907, 0.2703, 0.1856, 0.2034, 0.2393, 0.1562, 0.2289, 0.1811]"
140226,"[0.2450, 0.1927, 0.0650, 0.1200, 0.0193, 0.0222, 0.0921, 0.0158, 0.0231, 0.0933]"
62397,"[0.2876, 0.1905, 0.2490, 0.3049, 0.1939, 0.1683, 0.2222, 0.2229, 0.2840, 0.1737]"
44688,"[0.7290, 0.1821, 0.0651, 0.0336, 0.0312, 0.0175, 0.0241, 0.0067, 0.0344, 0.0347]"
101524,"[0.2314, 0.2271, 0.1408, 0.1893, 0.2890, 0.0978, 0.1942, 0.1947, 0.1627, 0.2513]"
15925,"[0.3589, 0.4771, 0.5024, 0.7305, 0.3539, 0.7551, 0.5818, 0.7089, 0.6444, 0.7794]"
70336,"[0.5939, 0.1295, 0.0928, 0.0624, 0.0836, 0.1767, 0.0666, 0.0588, 0.0453, 0.0551]"
258892,"[0.5073, 0.2107, 0.2553, 0.2281, 0.1863, 0.0256, 0.1825, 0.1344, 0.2099, 0.1758]"
28658,"[0.3447, 0.4723, 0.4329, 0.2863, 0.2515, 0.2646, 0.2052, 0.1391, 0.0688, 0.3155]"
3866,"[0.2038, 0.0866, 0.0678, 0.0958, 0.0906, 0.1147, 0.2625, 0.1555, 0.0985, 0.2171]"
104183,"[0.4209, 0.5421, 0.2169, 0.2526, 0.2167, 0.3547, 0.3807, 0.0800, 0.2763, 0.0597]"
99154,"[0.2288, 0.0794, 0.0842, 0.0716, 0.0937, 0.0660, 0.0405, 0.1430, 0.0343, 0.0914]"
41350,"[0.6063, 0.1178, 0.1488, 0.1622, 0.1985, 0.0824, 0.1848, 0.1165, 0.0251, 0.1951]"
368794,"[0.4552, 0.2781, 0.2976, 0.2851, 0.2871, 0.2792, 0.3753, 0.1507, 0.2404, 0.3604]"
82523,"[0.5731, 0.0980, 0.1332, 0.0535, 0.0217, 0.0605, 0.1062, 0.0918, 0.0439, 0.1128]"
